controllers/HomePageController.class
entities/ResponseObject.class
rest/domain/SomeRestController.class
config/App.class
rest/domain/IClient.class
entities/ResponseObject$ProductBuilder.class
rest/domain/stub/ClientStub.class
entities/ResponseObject$ResponseObjectBuilder.class
